<?xml version="1.0" encoding="utf-8"?>
<!-- Generator: Adobe Illustrator 17.0.0, SVG Export Plug-In . SVG Version: 6.00 Build 0)  -->
<!DOCTYPE svg PUBLIC "-//W3C//DTD SVG 1.1//EN" "http://www.w3.org/Graphics/SVG/1.1/DTD/svg11.dtd">
<svg version="1.1" id="Layer_1" xmlns="http://www.w3.org/2000/svg" xmlns:xlink="http://www.w3.org/1999/xlink" x="0px" y="0px"
	 width="56px" height="56px" viewBox="0 0 56 56" enable-background="new 0 0 56 56" xml:space="preserve">
<g id="_x37_04-compose_x40_2x.png">
	<g>
		<path d="M44.344,22.311c-0.535,0-0.969,0.434-0.969,0.969v30.031H2.688V12.624h30.031c0.535,0,0.969-0.433,0.969-0.969
			c0-0.535-0.433-0.969-0.969-0.969H2.688c-1.07,0-1.938,0.868-1.938,1.938v40.688c0,1.07,0.867,1.938,1.938,1.938h40.688
			c1.07,0,1.938-0.868,1.938-1.938V23.28C45.313,22.746,44.879,22.311,44.344,22.311z M54.433,4.306l-2.767-2.77
			c-0.764-0.764-2.003-0.764-2.767,0L20.535,29.923l-1.384,6.925l6.918-1.385L51.665,9.845l-1.384-1.384L25.147,33.617l-2.537-0.231
			l-0.23-2.539L47.515,5.691l-1.384-1.385l1.384-1.385l5.534,5.54l1.384-1.385C55.197,6.311,55.197,5.072,54.433,4.306z"/>
	</g>
</g>
</svg>
